[
{
    "name" : "mm_find_duplicate_items" ,
	"title" : "Find duplicate items",
    "description" : "Find duplicate items on Wikidata, via labels/aliases.",
    "url" : "http://tools.wmflabs.org/wikidata-todo/dupe_finder.php",
    "keywords" : "wikidata, duplicates",
    "author" : "Magnus Manske",
	"repository" : "https://bitbucket.org/magnusmanske/wikidata-todo"
},
{
    "name" : "mm_tempo_spatial_display" ,
	"title" : "Tempo-spatial display",
    "description" : "Shows Wikidata items linked via a property (eg 'part of') on both a timeline and a map.",
    "url" : "http://tools.wmflabs.org/wikidata-todo/tempo_spatial_display.html",
    "keywords" : "wikidata, timeline, map, visualisation, wdq",
    "author" : "Magnus Manske",
	"repository" : "https://bitbucket.org/magnusmanske/wikidata-todo"
},
{
    "name" : "mm_property_trees" ,
	"title" : "Property trees",
    "description" : "Generate lists and trees from Wikidata structures, such as subclasses, administrative divisions, and taxons.",
    "url" : "http://tools.wmflabs.org/wikidata-todo/tree.html",
    "keywords" : "wikidata, tree, visualisation, wdq",
    "author" : "Magnus Manske",
	"repository" : "https://bitbucket.org/magnusmanske/wikidata-todo"
},
{
    "name" : "mm_wikidata_stats" ,
	"title" : "Wikidata stats",
    "description" : "Shows statistics based on bi-weekly Wikidata snapshots.",
    "url" : "http://tools.wmflabs.org/wikidata-todo/stats.php",
    "keywords" : "wikidata, stats, visualisation",
    "author" : "Magnus Manske",
	"repository" : "https://bitbucket.org/magnusmanske/wikidata-todo"
},
{
    "name" : "mm_autolist" ,
	"title" : "AutoList",
    "description" : "Shows a list of items based on a Wikidata Query. See also AutoList 2.",
    "url" : "http://tools.wmflabs.org/autolist/autolist1.html",
    "keywords" : "wikidata, wdq, list",
    "author" : "Magnus Manske",
	"repository" : "https://bitbucket.org/magnusmanske/wikidata-todo"
},
{
    "name" : "mm_autolist2" ,
	"title" : "AutoList 2",
    "description" : "Shows a list of items based on a Wikidata Query, and allows mass-editing of statements on the results.",
    "url" : "http://tools.wmflabs.org/autolist/index.php",
    "keywords" : "wikidata, wdq, list, oauth, batch, sparql",
    "author" : "Magnus Manske",
	"repository" : "https://bitbucket.org/magnusmanske/wikidata-todo"
},
{
    "name" : "mm_recent_deaths" ,
	"title" : "Recent deaths",
    "description" : "Tries to match recent celebrity deaths from Find-a-grave to Wikidata items.",
    "url" : "http://tools.wmflabs.org/wikidata-todo/recent_deaths.html",
    "keywords" : "wikidata, wdq, list, external, find-a-grave, death, morbid",
    "author" : "Magnus Manske",
	"repository" : "https://bitbucket.org/magnusmanske/wikidata-todo"
},
{
    "name" : "mm_project_link_stats" ,
	"title" : "Project link stats",
    "description" : "Shows number/% of items linked to a Wikipedia article, per language.",
    "url" : "http://tools.wmflabs.org/wikidata-todo/project_stats.php",
    "keywords" : "wikidata, wikipedia, stats, list",
    "author" : "Magnus Manske",
	"repository" : "https://bitbucket.org/magnusmanske/wikidata-todo"
},
{
    "name" : "mm_concept_cloud" ,
	"title" : "Concept cloud",
    "description" : "Shows language labels for Wikipedia links from a Wikidata item, and allows label editing.",
    "url" : "http://tools.wmflabs.org/wikidata-todo/cloudy_concept.php",
    "keywords" : "wikidata, wikipedia, list, oauth, editing",
    "author" : "Magnus Manske",
	"repository" : "https://bitbucket.org/magnusmanske/wikidata-todo"
},
{
    "name" : "mm_beacon" ,
	"title" : "BEACON",
    "description" : "Shows lists of external identifiers (eg VIAF) matched to Wikidata items, or to other external IDs.",
    "url" : "http://tools.wmflabs.org/wikidata-todo/beacon.php",
    "keywords" : "wikidata, sparql, beacon, translation, external, catalog",
    "author" : "Magnus Manske",
	"repository" : "https://bitbucket.org/magnusmanske/wikidata-todo"
},
{
    "name" : "mm_wikidata_locations" ,
	"title" : "Wikidata locations",
    "description" : "Show items with coordinates around a center from Wikidata.",
    "url" : "http://tools.wmflabs.org/wikidata-todo/around.html",
    "keywords" : "maps, wikidata, wdq, gps",
    "author" : "Magnus Manske",
	"repository" : "https://bitbucket.org/magnusmanske/wikidata-todo"
},
{
    "name" : "mm_quick_statements" ,
	"title" : "QuickStatements",
    "description" : "Can add statements (with optional qualifiers and sources) to Wikidata items.",
    "url" : "http://tools.wmflabs.org/wikidata-todo/quick_statements.php",
    "keywords" : "wikidata, oauth, editing, batch",
    "author" : "Magnus Manske",
	"repository" : "https://bitbucket.org/magnusmanske/wikidata-todo"
},
{
    "name" : "mm_wd_missing_images" ,
	"title" : "Missing images",
    "description" : "Shows Wikidata items with coordinates but no images on a map. Heatmap or markers. [example: Cambridge]",
    "url" : "http://tools.wmflabs.org/wikidata-todo/missing_images.html",
    "keywords" : "maps, wikidata, heatmap, images, missing, gps, coordinates, wdq",
    "author" : "Magnus Manske",
	"repository" : "https://bitbucket.org/magnusmanske/wikidata-todo"
},
{
    "name" : "mm_related_properties" ,
	"title" : "Related properties",
    "description" : "This tool can analyze the results from a WikiData Query, and show the properties used in all items matching a query.",
    "url" : "http://tools.wmflabs.org/wikidata-todo/related_properties.php",
    "keywords" : "wikidata, wdq, properties, stats",
    "author" : "Magnus Manske",
	"repository" : "https://bitbucket.org/magnusmanske/wikidata-todo"
},
{
    "name" : "mm_subclass_dates" ,
	"title" : "Subclass dates",
    "description" : "Generates statistics on dates by (bucket) on property subclasses, e.g. all artists except actors and singers.",
    "url" : "http://tools.wmflabs.org/wikidata-todo/subclass_dates.php",
    "keywords" : "list, wikidata, wdq, dates, stats",
    "author" : "Magnus Manske",
	"repository" : "https://bitbucket.org/magnusmanske/wikidata-todo"
},
{
    "name" : "mm_wdvenn" ,
	"title" : "Wikidata Venn",
    "description" : "Generates unique- and subsets of Wikidata item lists. Does not draw actual diagram yet.",
    "url" : "http://tools.wmflabs.org/wikidata-todo/wdvenn.html",
    "keywords" : "wikidata, wdq, list, venn",
    "author" : "Magnus Manske",
	"repository" : "https://bitbucket.org/magnusmanske/wikidata-todo"
},
{
    "name" : "mm_translate_items" ,
	"title" : "Translate items",
    "description" : "Lists all translations (labels) of Wikidata items with a specific property. Used by BEACON.",
    "url" : "http://tools.wmflabs.org/wikidata-todo/translate_items_with_property.php",
    "keywords" : "translation, wikidata, list",
    "author" : "Magnus Manske",
	"repository" : "https://bitbucket.org/magnusmanske/wikidata-todo"
},
{
    "name" : "" ,
	"title" : "",
    "description" : "",
    "url" : "",
    "keywords" : "",
    "author" : "Magnus Manske",
	"repository" : "https://bitbucket.org/magnusmanske/wikidata-todo"
},
{
    "name" : "mm_wikidata_todo" ,
	"title" : "Wikidata Todo",
    "description" : "Shows you little things you can do on Wikidata.",
    "url" : "http://tools.wmflabs.org/wikidata-todo",
    "keywords" : "wikidata, task",
    "author" : "Magnus Manske",
	"repository" : "https://bitbucket.org/magnusmanske/wikidata-todo"
},
{
    "name" : "mm_linked_items" ,
	"title" : "Linked items",
    "description" : "Generated a list of Wikidata items of pages linked from Wikitext.",
    "url" : "http://tools.wmflabs.org/wikidata-todo/linked_items.php",
    "keywords" : "wikidata, wikitext, links",
    "author" : "Magnus Manske",
	"repository" : "https://bitbucket.org/magnusmanske/wikidata-todo"
},
{
    "name" : "mm_no_statements" ,
	"title" : "Items without statements",
    "description" : "Generates a pseudo-random list of Wikidata items that have no statements.",
    "url" : "http://tools.wmflabs.org/wikidata-todo/no_statements.php",
    "keywords" : "wikidata, statements, items",
    "author" : "Magnus Manske",
	"repository" : "https://bitbucket.org/magnusmanske/wikidata-todo"
},
{
    "name" : "mm_resolver" ,
	"title" : "Resolver",
    "description" : "Forwards to a Wikidata item, given a unique property and (string) value combination.",
    "url" : "https://tools.wmflabs.org/wikidata-todo/resolver.php",
    "keywords" : "wikidata, forward, external, property, properties",
    "author" : "Magnus Manske",
	"repository" : "https://bitbucket.org/magnusmanske/wikidata-todo"
},
{
    "name" : "mm_awarder" ,
	"title" : "Awarder",
    "description" : "Generates a list of awards for people from Wikipedia, and statements to add to Wikidata.",
    "url" : "https://tools.wmflabs.org/wikidata-todo/awarder.php",
    "keywords" : "wikidata, task",
    "author" : "Magnus Manske",
	"repository" : "https://bitbucket.org/magnusmanske/wikidata-todo"
},
{
    "name" : "mm_wdq_image_feed" ,
	"title" : "WDQ image feed",
    "description" : "Generate an image RSS feed (for your screensaver?) from a WDQ query.",
    "url" : "https://tools.wmflabs.org/wikidata-todo/wdq_image_feed.php",
    "keywords" : "wikidata, rss, feed, images",
    "author" : "Magnus Manske"
},
{
    "name" : "mm_artwork_images" ,
	"title" : "Artwork images",
    "description" : "Finds 10 random Commons Creators, items created by them without image, and Commons images created by them without Wikidata item.",
    "url" : "https://tools.wmflabs.org/wikidata-todo/artwork_images.php",
    "keywords" : "wikidata, artwork, images",
    "author" : "Magnus Manske"
},
{
    "name" : "mm_item_names" ,
	"title" : "Get item names",
    "description" : "Returns labels for a list of Wikidata items.",
    "url" : "https://tools.wmflabs.org/wikidata-todo/get_item_names.php",
    "keywords" : "wikidata, labels, i18n",
    "author" : "Magnus Manske"
},
{
    "name" : "mm_multibeacon" ,
	"title" : "MultiBEACON",
    "description" : "Get multiple items by property.",
    "url" : "https://tools.wmflabs.org/wikidata-todo/multibeacon.php",
    "keywords" : "wikidata, BEACON",
    "author" : "Magnus Manske"
},
{
    "name" : "mm_duplicity" ,
	"title" : "Duplicity",
    "description" : "Find Wikipedia articles without associated Wikidata items, and match or create a new item.",
    "url" : "https://tools.wmflabs.org/wikidata-todo/duplicity.php",
    "keywords" : "wikidata, wikipedia",
    "author" : "Magnus Manske"
},
{
    "name" : "mm_new_items" ,
	"title" : "New items",
    "description" : "Get new Wikidata items (now or before timestamp) as HTML or PagePile.",
    "url" : "https://tools.wmflabs.org/wikidata-todo/new_items.php",
    "keywords" : "wikidata, new, pagepile, list",
    "author" : "Magnus Manske"
},
{
    "name" : "mm_creator_from_wikidata" ,
	"title" : "Creator from Wikidata",
    "description" : "Fills a Commons {{Creator}} template based on a Wikidata item.",
    "url" : "https://tools.wmflabs.org/wikidata-todo/creator_from_wikidata.php",
    "keywords" : "wikidata, new, commons, creator",
    "author" : "Magnus Manske"
},
{
    "name" : "mm_wp_no_image" ,
	"title" : "Wikipedia no image",
    "description" : "List of articles that have no image on Wikipedia, but their associated Wikidata item has one. \"Big\" Wikipedias, updated daily.",
    "url" : "https://tools.wmflabs.org/wikidata-todo/wp_no_image/",
    "keywords" : "wikidata, wikipedia, commons, image",
    "author" : "Magnus Manske"
},
{
    "name" : "mm_rcvis" ,
	"title" : "Wikidata Recent Changes visualisation",
    "description" : "Shows Wikidata Recent Changes, live and 'in pretty'. All edits or humans only.",
    "url" : "https://tools.wmflabs.org/wikidata-todo/rcvis.html",
    "keywords" : "wikidata, recent changes, demo",
    "author" : "Magnus Manske"
},
{
    "name" : "mm_label_no_instance" ,
	"title" : "Label, no instance of",
    "description" : "Shows Wikidata items that have a label with a certain pattern, but no 'instance of' statement.",
    "url" : "https://tools.wmflabs.org/wikidata-todo/label_no_instance.php",
    "keywords" : "wikidata, label, instance of",
    "author" : "Magnus Manske"
},
{
    "name" : "mm_tabernacle" ,
	"title" : "Tabernacle",
    "description" : "Generates a table of Wikidata items and statements. Allows for quick addition of some types via WiDaR.",
    "url" : "https://tools.wmflabs.org/wikidata-todo/tabernacle.html",
    "keywords" : "wikidata, widar",
    "author" : "Magnus Manske"
},
{
    "name" : "mm_important_blank_items" ,
	"title" : "Important blank items",
    "description" : "Wikidata items with no statements, sorted by number of language links (=importance?). Updated hourly.",
    "url" : "https://tools.wmflabs.org/wikidata-todo/important_blank_items.php",
    "keywords" : "wikidata",
    "author" : "Magnus Manske"
},
{
    "name" : "mm_property_string_matcher" ,
	"title" : "Property String Matcher",
    "description" : "Finds, for a given string-type property, all items with statement values in a given list.",
    "url" : "https://tools.wmflabs.org/wikidata-todo/property_string_matcher.php",
    "keywords" : "wikidata, list, authority control",
    "author" : "Magnus Manske"
},
{
    "name" : "mm_wd_commons" ,
	"title" : "Wikidata Commons Demo",
    "description" : "Demonstrates multi-lingual search on Commons via Wikidata",
    "url" : "https://tools.wmflabs.org/wikidata-todo/wd_commons.php",
    "keywords" : "wikidata, commons, search, multilingual, demo",
    "author" : "Magnus Manske"
},
{
    "name" : "mm_wd_edit_stats" ,
	"title" : "Wikidata edit statistics",
    "description" : "Shows the editors on Wikidata items from a SPARQL query",
    "url" : "https://tools.wmflabs.org/wikidata-todo/wd_edit_stats.php",
    "keywords" : "wikidata, sparql, edit, editors, stats, statistics, edit count",
    "author" : "Magnus Manske"
},
{
    "name" : "mm_missing_wp_animal_audio" ,
	"title" : "Missing animal audio",
    "description" : "Lists articles about animals on a wiki that don't have audio, but Wikidata does",
    "url" : "https://tools.wmflabs.org/wikidata-todo/missing_wp_animal_audio.php",
    "keywords" : "wikidata, wikipedia, animals, audio, missing",
    "author" : "Magnus Manske"
},
{
    "name" : "mm_sparql_rc" ,
	"title" : "Wikidata SPARQL Recent Changes",
    "description" : "Get diffs for all items matching a SPARQL query, for a date range",
    "url" : "https://tools.wmflabs.org/wikidata-todo/sparql_rc.php",
    "keywords" : "wikidata, sparql, query, recent changes, recentchanges",
    "author" : "Magnus Manske"
},
{
    "name" : "mm_user_edits" ,
    "title" : "Wikidata user edits",
    "description" : "Shows edits for a user/bot on Wikidata, for a set of items, with a specific revision comment pattern",
    "url" : "https://tools.wmflabs.org/wikidata-todo/user_edits.php",
    "keywords" : "wikidata, sparql, query, user, edit, revision, regex, regexp",
    "author" : "Magnus Manske"
},
{
    "name" : "mm_relator" ,
    "title" : "Relator",
    "description" : "Lets you browse and edit family relationships on Wikidata",
    "url" : "https://tools.wmflabs.org/wikidata-todo/relator",
    "keywords" : "wikidata, genealogy",
    "author" : "Magnus Manske"
},
{
    "name" : "mm_wdq2graph" ,
	"title" : "WDQ2graph",
    "description" : "Generates simple graphs from Wikidata/WDQ trees.",
    "url" : "https://tools.wmflabs.org/wikidata-todo/wdq2graph.php",
    "keywords" : "wikidata, graph, tree",
    "author" : "Magnus Manske",
	"repository" : "https://bitbucket.org/magnusmanske/wikidata-todo"
}

]